Meta-analysis
…
dados_meta

# A tibble: 650 × 18
# Groups:   trial, year, location, season, hybrid, technology [650]
   trial            year location season hybrid technology yld_check yld_treated
   <fct>           <dbl> <chr>    <chr>  <chr>  <chr>          <dbl>       <dbl>
 1 2019.Campo Mou…  2019 Campo M… second 10A40… BT             3315.       5218.
 2 2020.Campo Mou…  2020 Campo M… second 10A40… BT             6595        7128.
 3 2019.Londrina.…  2019 Londrina second 10A40… BT             6623        7102 
 4 2020.Londrina.…  2020 Londrina second 10A40… BT             8369.       6053.
 5 2020.Campo Mou…  2020 Campo M… second 20A07… BT             5904        6188 
 6 2020.Londrina.…  2020 Londrina second 20A07… BT             7638.       7893 
 7 2018.Campo Mou…  2018 Campo M… second 20A20… BT             4414        4689.
 8 2018.Londrina.…  2018 Londrina second 20A20… BT             3202.       3243 
 9 2020.Campo Mou…  2020 Campo M… second 20A44… BT             5920.       6973.
10 2020.Londrina.…  2020 Londrina second 20A44… BT             7140        7178.
# ℹ 640 more rows
# ℹ 10 more variables: sd_yld_check <dbl>, sd_yld_treated <dbl>, n_check <int>,
#   n_treated <int>, sev_check <dbl>, sev_treated <dbl>, study_id <chr>,
#   pressao <chr>, yi <dbl>, sei <dbl>

dados_meta |> 
  ungroup() |> 
  count(hybrid) |> 
  arrange(n)

# A tibble: 238 × 2
   hybrid               n
   <chr>            <int>
 1 2B640PW              1
 2 AV 4142              1
 3 GNZ 7210PRO2         1
 4 IPT 3AXG3XM90        1
 5 IPT L3AXLG3XLM90     1
 6 JM 2M55              1
 7 MG 580PW             1
 8 XB 72291             1
 9 k9100                1
10 k9460                1
# ℹ 228 more rows
…
